<?xml version="1.0" encoding="UTF-8"?>
<svg width="500" height="500" version="1.1" xmlns="http://www.w3.org/2000/svg" xmlns:xlink="http://www.w3.org/1999/xlink">
	<!--<path id="cesta" d="M50 50 Q 450 50 450 450 Q 50 450 50 50 Z" stroke="red" fill="none" stroke-width="10"/>-->
	<g id="containerg">
	<path id="osmicka" fill="none" stroke="#333333" stroke-width="5" d="M100,100 
             C200,0 200,200 100,100
             C0,0 0,200 100,100z" />
			 
	<circle id="krouzek1" cx="0" cy="0" r="5" fill="red"/>
	<circle id="krouzek2" cx="0" cy="0" r="5" fill="green"/>
	<circle id="krouzek3" cx="0" cy="0" r="5" fill="blue"/>
	
		
		
		<animateMotion xlink:href="#krouzek1" begin="0s" dur="3s" repeatCount="indefinite">
			<mpath xlink:href="#osmicka" />
		</animateMotion>
		
		<animateMotion xlink:href="#krouzek2" begin="0s" dur="2s" repeatCount="indefinite">
			<mpath xlink:href="#osmicka" />
		</animateMotion>
		
		<animateMotion xlink:href="#krouzek3" begin="0s" dur="1s" repeatCount="indefinite">
			<mpath xlink:href="#osmicka" />
		</animateMotion>
		
		</g>
		
		<animateTransform 
			xlink:href="#containerg"
			attributeName="transform" 
			attributeType="XML"
			type="rotate"
			from="0 150 150"
			to="360 150 150" 
			dur="5s"
			begin="0s"
			repeatCount="indefinite" 
		/>
</svg>